{"tracks":{"href":"https://api.spotify.com/v1/search?offset=0&limit=5&query=ed%20sheeran&type=track","limit":5,"next":"https://api.spotify.com/v1/search?offset=5&limit=5&query=ed%20sheeran&type=track","offset":0,"previous":null,"total":6,"items":[{"album":{"album_type":"album","artists":[{"external_urls":{"spotify":"https://open.spotify.com/artist/6eUKZXaKkcviH0Ku9w2n3V"},"href":"https://api.spotify.com/v1/artists/6eUKZXaKkcviH0Ku9w2n3V","id":"6eUKZXaKkcviH0Ku9w2n3V","name":"Ed Sheeran","type":"artist","uri":"spotify:artist:6eUKZXaKkcviH0Ku9w2n3V"}],"external_urls":{"spotify":"https://open.spotify.com/album/3T4tUhGYeRNVUGevb0wThu"},"href":"https://api.spotify.com/v1/albums/3T4tUhGYeRNVUGevb0wThu","id":"3T4tUhGYeRNVUGevb0wThu","images":[{"height":640,"width":640,"url":"https://i.scdn.co/image/ab67616d0000b273ba5db46f4b838ef6027e6f96"},{"height":300,"width":300,"url":"https://i.scdn.co/image/ab67616d00001e02ba5db46f4b838ef6027e6f96"},{"height":64,"width":64,"url":"https://i.scdn.co/image/ab67616d00004851ba5db46f4b838ef6027e6f96"}],"is_playable":true,"name":"÷ (Deluxe)","release_date":"2017-03-03","release_date_precision":"day","total_tracks":16,"type":"album","uri":"spotify:album:3T4tUhGYeRNVUGevb0wThu"},"artists":[{"external_urls":{"spotify":"https://open.spotify.com/artist/6eUKZXaKkcviH0Ku9w2n3V"},"href":"https://api.spotify.com/v1/artists/6eUKZXaKkcviH0Ku9w2n3V","id":"6eUKZXaKkcviH0Ku9w2n3V","name":"Ed Sheeran","type":"artist","uri":"spotify:artist:6eUKZXaKkcviH0Ku9w2n3V"}],"disc_number":1,"duration_ms":263400,"explicit":false,"external_ids":{"isrc":"GBAHS1700024"},"external_urls":{"spotify":"https://open.spotify.com/track/0tgVpDi06FyKpA1z0VMD4v"},"href":"https://api.spotify.com/v1/tracks/0tgVpDi06FyKpA1z0VMD4v","id":"0tgVpDi06FyKpA1z0VMD4v","is_local":false,"is_playable":true,"name":"Perfect","track_number":5,"type":"track","uri":"spotify:track:0tgVpDi06FyKpA1z0VMD4v"},{"album":{"album_type":"album","artists":[{"external_urls":{"spotify":"https://open.spotify.com/artist/6eUKZXaKkcviH0Ku9w2n3V"},"href":"https://api.spotify.com/v1/artists/6eUKZXaKkcviH0Ku9w2n3V","id":"6eUKZXaKkcviH0Ku9w2n3V","name":"Ed Sheeran","type":"artist","uri":"spotify:artist:6eUKZXaKkcviH0Ku9w2n3V"}],"external_urls":{"spotify":"https://open.spotify.com/album/3T4tUhGYeRNVUGevb0wThu"},"href":"https://api.spotify.com/v1/albums/3T4tUhGYeRNVUGevb0wThu","id":"3T4tUhGYeRNVUGevb0wThu","images":[{"height":640,"width":640,"url":"https://i.scdn.co/image/ab67616d0000b273ba5db46f4b838ef6027e6f96"},{"height":300,"width":300,"url":"https://i.scdn.co/image/ab67616d00001e02ba5db46f4b838ef6027e6f96"},{"height":64,"width":64,"url":"https://i.scdn.co/image/ab67616d00004851ba5db46f4b838ef6027e6f96"}],"is_playable":true,"name":"÷ (Deluxe)","release_date":"2017-03-03","release_date_precision":"day","total_tracks":16,"type":"album","uri":"spotify:album:3T4tUhGYeRNVUGevb0wThu"},"artists":[{"external_urls":{"spotify":"https://open.spotify.com/artist/6eUKZXaKkcviH0Ku9w2n3V"},"href":"https://api.spotify.com/v1/artists/6eUKZXaKkcviH0Ku9w2n3V","id":"6eUKZXaKkcviH0Ku9w2n3V","name":"Ed Sheeran","type":"artist","uri":"spotify:artist:6eUKZXaKkcviH0Ku9w2n3V"}],"disc_number":1,"duration_ms":233712,"explicit":false,"external_ids":{"isrc":"GBAHS1600463"},"external_urls":{"spotify":"https://open.spotify.com/track/7qiZfU4dY1lWllzX7mPBI3"},"href":"https://api.spotify.com/v1/tracks/7qiZfU4dY1lWllzX7mPBI3","id":"7qiZfU4dY1lWllzX7mPBI3","is_local":false,"is_playable":true,"name":"Shape of You","track_number":4,"type":"track","uri":"spotify:track:7qiZfU4dY1lWllzX7mPBI3"},{"album":{"album_type":"album","artists":[{"external_urls":{"spotify":"https://open.spotify.com/artist/6eUKZXaKkcviH0Ku9w2n3V"},"href":"https://api.spotify.com/v1/artists/6eUKZXaKkcviH0Ku9w2n3V","id":"6eUKZXaKkcviH0Ku9w2n3V","name":"Ed Sheeran","type":"artist","uri":"spotify:artist:6eUKZXaKkcviH0Ku9w2n3V"}],"external_urls":{"spotify":"https://open.spotify.com/album/1xn54DMo2qIqBuMqHtUsFd"},"href":"https://api.spotify.com/v1/albums/1xn54DMo2qIqBuMqHtUsFd","id":"1xn54DMo2qIqBuMqHtUsFd","images":[{"height":640,"width":640,"url":"https://i.scdn.co/image/ab67616d0000b27313b3e37318a0c247b550bccd"},{"height":300,"width":300,"url":"https://i.scdn.co/image/ab67616d00001e0213b3e37318a0c247b550bccd"},{"height":64,"width":64,"url":"https://i.scdn.co/image/ab67616d0000485113b3e37318a0c247b550bccd"}],"is_playable":true,"name":"x (Deluxe Edition)","release_date":"2014-06-21","release_date_precision":"day","total_tracks":16,"type":"album","uri":"spotify:album:1xn54DMo2qIqBuMqHtUsFd"},"artists":[{"external_urls":{"spotify":"https://open.spotify.com/artist/6eUKZXaKkcviH0Ku9w2n3V"},"href":"https://api.spotify.com/v1/artists/6eUKZXaKkcviH0Ku9w2n3V","id":"6eUKZXaKkcviH0Ku9w2n3V","name":"Ed Sheeran","type":"artist","uri":"spotify:artist:6eUKZXaKkcviH0Ku9w2n3V"}],"disc_number":1,"duration_ms":258986,"explicit":false,"external_ids":{"isrc":"GBAHS1400094"},"external_urls":{"spotify":"https://open.spotify.com/track/1HNkqx9Ahdgi1Ixy2xkKkL"},"href":"https://api.spotify.com/v1/tracks/1HNkqx9Ahdgi1Ixy2xkKkL","id":"1HNkqx9Ahdgi1Ixy2xkKkL","is_local":false,"is_playable":true,"name":"Photograph","track_number":6,"type":"track","uri":"spotify:track:1HNkqx9Ahdgi1Ixy2xkKkL"},{"album":{"album_type":"album","artists":[{"external_urls":{"spotify":"https://open.spotify.com/artist/6eUKZXaKkcviH0Ku9w2n3V"},"href":"https://api.spotify.com/v1/artists/6eUKZXaKkcviH0Ku9w2n3V","id":"6eUKZXaKkcviH0Ku9w2n3V","name":"Ed Sheeran","type":"artist","uri":"spotify:artist:6eUKZXaKkcviH0Ku9w2n3V"}],"external_urls":{"spotify":"https://open.spotify.com/album/1xn54DMo2qIqBuMqHtUsFd"},"href":"https://api.spotify.com/v1/albums/1xn54DMo2qIqBuMqHtUsFd","id":"1xn54DMo2qIqBuMqHtUsFd","images":[{"height":640,"width":640,"url":"https://i.scdn.co/image/ab67616d0000b27313b3e37318a0c247b550bccd"},{"height":300,"width":300,"url":"https://i.scdn.co/image/ab67616d00001e0213b3e37318a0c247b550bccd"},{"height":64,"width":64,"url":"https://i.scdn.co/image/ab67616d0000485113b3e37318a0c247b550bccd"}],"is_playable":true,"name":"x (Deluxe Edition)","release_date":"2014-06-21","release_date_precision":"day","total_tracks":16,"type":"album","uri":"spotify:album:1xn54DMo2qIqBuMqHtUsFd"},"artists":[{"external_urls":{"spotify":"https://open.spotify.com/artist/6eUKZXaKkcviH0Ku9w2n3V"},"href":"https://api.spotify.com/v1/artists/6eUKZXaKkcviH0Ku9w2n3V","id":"6eUKZXaKkcviH0Ku9w2n3V","name":"Ed Sheeran","type":"artist","uri":"spotify:artist:6eUKZXaKkcviH0Ku9w2n3V"}],"disc_number":1,"duration_ms":281560,"explicit":false,"external_ids":{"isrc":"GBAHS1400099"},"external_urls":{"spotify":"https://open.spotify.com/track/34gCuhDGsG4bRPIf9bb02f"},"href":"https://api.spotify.com/v1/tracks/34gCuhDGsG4bRPIf9bb02f","id":"34gCuhDGsG4bRPIf9bb02f","is_local":false,"is_playable":true,"name":"Thinking out Loud","track_number":11,"type":"track","uri":"spotify:track:34gCuhDGsG4bRPIf9bb02f"},{"album":{"album_type":"album","artists":[{"external_urls":{"spotify":"https://open.spotify.com/artist/6eUKZXaKkcviH0Ku9w2n3V"},"href":"https://api.spotify.com/v1/artists/6eUKZXaKkcviH0Ku9w2n3V","id":"6eUKZXaKkcviH0Ku9w2n3V","name":"Ed Sheeran","type":"artist","uri":"spotify:artist:6eUKZXaKkcviH0Ku9w2n3V"}],"external_urls":{"spotify":"https://open.spotify.com/album/32iAEBstCjauDhyKpGjTuq"},"href":"https://api.spotify.com/v1/albums/32iAEBstCjauDhyKpGjTuq","id":"32iAEBstCjauDhyKpGjTuq","images":[{"height":640,"width":640,"url":"https://i.scdn.co/image/ab67616d0000b273dc806722f6802a8ea9953c89"},{"height":300,"width":300,"url":"https://i.scdn.co/image/ab67616d00001e02dc806722f6802a8ea9953c89"},{"height":64,"width":64,"url":"https://i.scdn.co/image/ab67616d00004851dc806722f6802a8ea9953c89"}],"is_playable":true,"name":"=","release_date":"2021-10-25","release_date_precision":"day","total_tracks":14,"type":"album","uri":"spotify:album:32iAEBstCjauDhyKpGjTuq"},"artists":[{"external_urls":{"spotify":"https://open.spotify.com/artist/6eUKZXaKkcviH0Ku9w2n3V"},"href":"https://api.spotify.com/v1/artists/6eUKZXaKkcviH0Ku9w2n3V","id":"6eUKZXaKkcviH0Ku9w2n3V","name":"Ed Sheeran","type":"artist","uri":"spotify:artist:6eUKZXaKkcviH0Ku9w2n3V"}],"disc_number":1,"duration_ms":230746,"explicit":false,"external_ids":{"isrc":"GBAHS2100318"},"external_urls":{"spotify":"https://open.spotify.com/track/3rmo8F54jFF8OgYsqTxm5d"},"href":"https://api.spotify.com/v1/tracks/3rmo8F54jFF8OgYsqTxm5d","id":"3rmo8F54jFF8OgYsqTxm5d","is_local":false,"is_playable":true,"name":"Bad Habits","track_number":4,"type":"track","uri":"spotify:track:3rmo8F54jFF8OgYsqTxm5d"}]}}